<svg xmlns="http://www.w3.org/2000/svg" viewBox="0 0 16 16">
  <path
    id="path"
    fill-rule="evenodd"
    d="M 7.99 9.87
       C 7.99 9.87 3.4 7.19 3.4 7.19
         3.4 7.19 3.27 7.38 3.27 7.38
         1.86 9.6 2.18 12.5 4.03 14.36
         6.22 16.54 9.76 16.54 11.95 14.36
         13.81 12.5 14.12 9.6 12.71 7.38
         12.71 7.38 12.58 7.19 12.58 7.19
         12.58 7.19 7.99 9.87 7.99 9.87
         7.99 9.87 7.99 9.87 7.99 9.87 Z
       M 8 0
       C 8 0 11.95 6.2 11.95 6.2
         11.95 6.2 8 8.5 8 8.5
         8 8.5 4.04 6.2 4.04 6.2
         4.04 6.2 8 0 8 0 Z
       M 5.25 5.9
       C 5.25 5.9 8 1.61 8 1.61
         8 1.61 10.74 5.9 10.74 5.9
         10.74 5.9 8 7.5 8 7.5
         8 7.5 5.25 5.9 5.25 5.9 Z"
  />
</svg>
